…
The following steps will be taken for exercise 1.3:

1.  Make sure the year is in asending order within each country, using group\_by() and arrange().
2.  Obtain the lifeExp of the previous year, called prev\_lifeExp, using mutate().
3.  Obtain the change from the previous year, using mutate()
4.  Select the entries that have experienced a drop in life expectancy compared to the year before, using filter()

``` r
gapminder %>% group_by(country) %>% arrange(year) %>% 
  mutate(prev_lifeExp=lag(lifeExp), change=lifeExp-prev_lifeExp) %>% 
  filter(change<0)
```

    ## # A tibble: 102 x 8
    ## # Groups:   country [52]
    ##    country    continent  year lifeExp    pop gdpPercap prev_lifeExp  change
    ##    <fct>      <fct>     <int>   <dbl>  <int>     <dbl>        <dbl>   <dbl>
    ##  1 China      Asia       1962    44.5 6.66e8      488.         50.5 -6.05  
    ##  2 Cambodia   Asia       1972    40.3 7.45e6      422.         45.4 -5.10  
    ##  3 Czech Rep~ Europe     1972    70.3 9.86e6    13108.         70.4 -0.0900
    ##  4 Netherlan~ Europe     1972    73.8 1.33e7    18795.         73.8 -0.0700
    ##  5 Slovak Re~ Europe     1972    70.4 4.59e6     9674.         71.0 -0.63  
    ##  6 Bulgaria   Europe     1977    70.8 8.80e6     7612.         70.9 -0.09  
    ##  7 Cambodia   Asia       1977    31.2 6.98e6      525.         40.3 -9.10  
    ##  8 El Salvad~ Americas   1977    56.7 4.28e6     5139.         58.2 -1.51  
    ##  9 Poland     Europe     1977    70.7 3.46e7     9508.         70.8 -0.180 
    ## 10 Uganda     Africa     1977    50.4 1.15e7      844.         51.0 -0.666 
    ## # ... with 92 more rows

<br/>

1.4
---

Filter gapminder so that it shows the max GDP per capita experienced by each country.

``` r
gapminder %>% group_by(country) %>% filter(gdpPercap==max(gdpPercap))
```

    ## # A tibble: 142 x 6
    ## # Groups:   country [142]
    ##    country     continent  year lifeExp       pop gdpPercap
    ##    <fct>       <fct>     <int>   <dbl>     <int>     <dbl>
    ##  1 Afghanistan Asia       1982    39.9  12881816      978.
    ##  2 Albania     Europe     2007    76.4   3600523     5937.
    ##  3 Algeria     Africa     2007    72.3  33333216     6223.
    ##  4 Angola      Africa     1967    36.0   5247469     5523.
    ##  5 Argentina   Americas   2007    75.3  40301927    12779.
    ##  6 Australia   Oceania    2007    81.2  20434176    34435.
    ##  7 Austria     Europe     2007    79.8   8199783    36126.
    ##  8 Bahrain     Asia       2007    75.6    708573    29796.
    ##  9 Bangladesh  Asia       2007    64.1 150448339     1391.
    ## 10 Belgium     Europe     2007    79.4  10392226    33693.
    ## # ... with 132 more rows
…
